{"isSuccess":true,"status":0,"message":null,"data":{"pageSize":20,"pageNum":1,"total":64,"pageCount":4,"hasNext":true,"hasPrevious":false,"pageSizeList":[10,20,50,100],"data":[{"id":3448,"reimburseSn":"BX2018041100005","reimburseTitle":"rrrrrrrrr","reimburseOpinion":null,"payStatus":0,"totalMoney":30.0000,"taxMoney":0.8700,"relTaxMoney":30.0000,"relTotalMoney":0.0000,"relNonTaxMoney":29.1300,"nonTaxMoney":29.1300,"delFlag":0,"areaOrgId":0,"areaOrgName":null,"paymentPropertyId":0,"paymentPropertyName":null,"paymentPropertyCode":null,"paymentPropertyRemark":null,"paymentMode":2,"commissionFlag":0,"collectionDate":1523376000000,"attachmentNumber":0,"payDate":null,"payMoney":null,"operator":"","flowInstanceId":0,"approveStatus":5,"curApproveUserId":"","curApproveUserName":"","applyOrgId":1179,"applyOrgName":"江苏新城物业","payOrgId":1179,"distributorName":null,"payeeId":6502,"payee":"邹湘芸","payeeApplyOrgId":null,"payeeApplyOrgName":null,"receiptCity":null,"receiptBank":null,"receiptBankAccount":null,"reimburseRemark":null,"year":2018,"createby":6502,"createbyName":"邹湘芸","createDate":1523440504000,"updateby":6502,"updatebyName":"邹湘芸","updateDate":1524105695000,"payOrgUnitId":null,"payOrgUnitName":null,"payOrgDepartmentId":null,"payOrgDepartmentName":"","startDate":null,"endDate":null,"fileIds":"","itemList":null},{"id":3446,"reimburseSn":"BX2018031900104","reimburseTitle":"1111111","reimburseOpinion":null,"payStatus":0,"totalMoney":111.0000,"taxMoney":0.0000,"relTaxMoney":111.0000,"relTotalMoney":0.0000,"relNonTaxMoney":111.0000,"nonTaxMoney":111.0000,"delFlag":0,"areaOrgId":0,"areaOrgName":null,"paymentPropertyId":0,"paymentPropertyName":null,"paymentPropertyCode":null,"paymentPropertyRemark":null,"paymentMode":2,"commissionFlag":0,"collectionDate":1521388800000,"attachmentNumber":0,"payDate":null,"payMoney":null,"operator":null,"flowInstanceId":0,"approveStatus":2,"curApproveUserId":"0","curApproveUserName":null,"applyOrgId":1179,"applyOrgName":"江苏新城物业","payOrgId":1179,"distributorName":null,"payeeId":null,"payee":"邹湘芸","payeeApplyOrgId":null,"payeeApplyOrgName":null,"receiptCity":null,"receiptBank":"","receiptBankAccount":"","reimburseRemark":"","year":2018,"createby":6502,"createbyName":"邹湘芸","createDate":1521443131000,"updateby":6502,"updatebyName":"邹湘芸","updateDate":1523346181000,"payOrgUnitId":null,"payOrgUnitName":null,"payOrgDepartmentId":null,"payOrgDepartmentName":null,"startDate":null,"endDate":null,"fileIds":"","itemList":null},{"id":3430,"reimburseSn":"BX2018031600012","reimburseTitle":"16163","reimburseOpinion":null,"payStatus":0,"totalMoney":16.4800,"taxMoney":0.4800,"relTaxMoney":16.4800,"relTotalMoney":0.0000,"relNonTaxMoney":16.0000,"nonTaxMoney":16.0000,"delFlag":0,"areaOrgId":null,"areaOrgName":null,"paymentPropertyId":76,"paymentPropertyName":null,"paymentPropertyCode":"03_01","paymentPropertyRemark":null,"paymentMode":2,"commissionFlag":0,"collectionDate":1521129600000,"attachmentNumber":0,"payDate":null,"payMoney":null,"operator":null,"flowInstanceId":0,"approveStatus":5,"curApproveUserId":null,"curApproveUserName":null,"applyOrgId":1179,"applyOrgName":"江苏新城物业","payOrgId":1179,"distributorName":null,"payeeId":null,"payee":"邹湘芸","payeeApplyOrgId":null,"payeeApplyOrgName":null,"receiptCity":null,"receiptBank":"","receiptBankAccount":"","reimburseRemark":"","year":2018,"createby":6502,"createbyName":"邹湘芸","createDate":1521185828000,"updateby":null,"updatebyName":null,"updateDate":1521199716000,"payOrgUnitId":null,"payOrgUnitName":null,"payOrgDepartmentId":null,"payOrgDepartmentName":null,"startDate":null,"endDate":null,"fileIds":"","itemList":null},{"id":3429,"reimburseSn":"BX2018031600011","reimburseTitle":"16162","reimburseOpinion":null,"payStatus":0,"totalMoney":16.0000,"taxMoney":0.0000,"relTaxMoney":16.0000,"relTotalMoney":0.0000,"relNonTaxMoney":16.0000,"nonTaxMoney":16.0000,"delFlag":0,"areaOrgId":null,"areaOrgName":null,"paymentPropertyId":null,"paymentPropertyName":null,"paymentPropertyCode":null,"paymentPropertyRemark":null,"paymentMode":2,"commissionFlag":0,"collectionDate":1521129600000,"attachmentNumber":0,"payDate":null,"payMoney":null,"operator":null,"flowInstanceId":0,"approveStatus":5,"curApproveUserId":null,"curApproveUserName":null,"applyOrgId":1179,"applyOrgName":"江苏新城物业","payOrgId":1179,"distributorName":null,"payeeId":null,"payee":"邹湘芸","payeeApplyOrgId":null,"payeeApplyOrgName":null,"receiptCity":null,"receiptBank":"","receiptBankAccount":"","reimburseRemark":"","year":2018,"createby":6502,"createbyName":"邹湘芸","createDate":1521185768000,"updateby":null,"updatebyName":null,"updateDate":null,"payOrgUnitId":null,"payOrgUnitName":null,"payOrgDepartmentId":null,"payOrgDepartmentName":null,"startDate":null,"endDate":null,"fileIds":"","itemList":null},{"id":3426,"reimburseSn":"BX2018031500070","reimburseTitle":"20180315-006","reimburseOpinion":null,"payStatus":0,"totalMoney":1.0300,"taxMoney":0.0300,"relTaxMoney":1.0300,"relTotalMoney":0.0000,"relNonTaxMoney":1.0000,"nonTaxMoney":1.0000,"delFlag":0,"areaOrgId":null,"areaOrgName":null,"paymentPropertyId":null,"paymentPropertyName":null,"paymentPropertyCode":null,"paymentPropertyRemark":null,"paymentMode":2,"commissionFlag":0,"collectionDate":1521043200000,"attachmentNumber":0,"payDate":null,"payMoney":null,"operator":null,"flowInstanceId":8503252,"approveStatus":6,"curApproveUserId":"","curApproveUserName":"","applyOrgId":1711,"applyOrgName":"财务管理中心","payOrgId":1711,"distributorName":null,"payeeId":null,"payee":"邹湘芸","payeeApplyOrgId":null,"payeeApplyOrgName":null,"receiptCity":null,"receiptBank":"","receiptBankAccount":"","reimburseRemark":"","year":2018,"createby":6502,"createbyName":"邹湘芸","createDate":1521110421000,"updateby":6502,"updatebyName":"邹湘芸","updateDate":1524116556000,"payOrgUnitId":null,"payOrgUnitName":null,"payOrgDepartmentId":null,"payOrgDepartmentName":null,"startDate":null,"endDate":null,"fileIds":"","itemList":null},{"id":3425,"reimburseSn":"BX2018031500068","reimburseTitle":"20180315-005","reimburseOpinion":null,"payStatus":0,"totalMoney":1.0300,"taxMoney":0.0300,"relTaxMoney":1.0300,"relTotalMoney":0.0000,"relNonTaxMoney":1.0000,"nonTaxMoney":1.0000,"delFlag":0,"areaOrgId":null,"areaOrgName":null,"paymentPropertyId":null,"paymentPropertyName":null,"paymentPropertyCode":null,"paymentPropertyRemark":null,"paymentMode":2,"commissionFlag":0,"collectionDate":1521043200000,"attachmentNumber":0,"payDate":null,"payMoney":null,"operator":null,"flowInstanceId":8503000,"approveStatus":3,"curApproveUserId":"19814","curApproveUserName":"杨阳","applyOrgId":1711,"applyOrgName":"财务管理中心","payOrgId":1711,"distributorName":null,"payeeId":null,"payee":"邹湘芸","payeeApplyOrgId":null,"payeeApplyOrgName":null,"receiptCity":null,"receiptBank":"","receiptBankAccount":"","reimburseRemark":"","year":2018,"createby":6502,"createbyName":"邹湘芸","createDate":1521110067000,"updateby":6502,"updatebyName":"邹湘芸","updateDate":1521110077000,"payOrgUnitId":null,"payOrgUnitName":null,"payOrgDepartmentId":null,"payOrgDepartmentName":null,"startDate":null,"endDate":null,"fileIds":"","itemList":null},{"id":3424,"reimburseSn":"BX2018031500066","reimburseTitle":"555555666","reimburseOpinion":null,"payStatus":0,"totalMoney":2288.6600,"taxMoney":66.6600,"relTaxMoney":2288.6600,"relTotalMoney":0.0000,"relNonTaxMoney":2222.0000,"nonTaxMoney":2222.0000,"delFlag":0,"areaOrgId":null,"areaOrgName":null,"paymentPropertyId":null,"paymentPropertyName":null,"paymentPropertyCode":null,"paymentPropertyRemark":null,"paymentMode":2,"commissionFlag":0,"collectionDate":1521043200000,"attachmentNumber":0,"payDate":null,"payMoney":null,"operator":null,"flowInstanceId":8502748,"approveStatus":3,"curApproveUserId":"19814","curApproveUserName":"杨阳","applyOrgId":1711,"applyOrgName":"财务管理中心","payOrgId":1711,"distributorName":null,"payeeId":null,"payee":"邹湘芸","payeeApplyOrgId":null,"payeeApplyOrgName":null,"receiptCity":null,"receiptBank":"","receiptBankAccount":"","reimburseRemark":"","year":2018,"createby":6502,"createbyName":"邹湘芸","createDate":1521108820000,"updateby":6502,"updatebyName":"邹湘芸","updateDate":1521109048000,"payOrgUnitId":null,"payOrgUnitName":null,"payOrgDepartmentId":null,"payOrgDepartmentName":null,"startDate":null,"endDate":null,"fileIds":"","itemList":null},{"id":3423,"reimburseSn":"BX2018031500056","reimburseTitle":"20180315-004","reimburseOpinion":null,"payStatus":0,"totalMoney":1.0300,"taxMoney":0.0300,"relTaxMoney":1.0300,"relTotalMoney":0.0000,"relNonTaxMoney":1.0000,"nonTaxMoney":1.0000,"delFlag":0,"areaOrgId":null,"areaOrgName":null,"paymentPropertyId":null,"paymentPropertyName":null,"paymentPropertyCode":null,"paymentPropertyRemark":null,"paymentMode":2,"commissionFlag":0,"collectionDate":1521043200000,"attachmentNumber":0,"payDate":null,"payMoney":null,"operator":null,"flowInstanceId":8500505,"approveStatus":3,"curApproveUserId":"19814","curApproveUserName":"杨阳","applyOrgId":1711,"applyOrgName":"财务管理中心","payOrgId":1711,"distributorName":null,"payeeId":null,"payee":"邹湘芸","payeeApplyOrgId":null,"payeeApplyOrgName":null,"receiptCity":null,"receiptBank":"","receiptBankAccount":"","reimburseRemark":"","year":2018,"createby":6502,"createbyName":"邹湘芸","createDate":1521107785000,"updateby":6502,"updatebyName":"邹湘芸","updateDate":1521107815000,"payOrgUnitId":null,"payOrgUnitName":null,"payOrgDepartmentId":null,"payOrgDepartmentName":null,"startDate":null,"endDate":null,"fileIds":"","itemList":null},{"id":3422,"reimburseSn":"BX2018031500054","reimburseTitle":"20180315-003","reimburseOpinion":null,"payStatus":0,"totalMoney":1.0300,"taxMoney":0.0300,"relTaxMoney":1.0300,"relTotalMoney":0.0000,"relNonTaxMoney":1.0000,"nonTaxMoney":1.0000,"delFlag":0,"areaOrgId":null,"areaOrgName":null,"paymentPropertyId":null,"paymentPropertyName":null,"paymentPropertyCode":null,"paymentPropertyRemark":null,"paymentMode":2,"commissionFlag":0,"collectionDate":1521043200000,"attachmentNumber":0,"payDate":null,"payMoney":null,"operator":null,"flowInstanceId":8500253,"approveStatus":3,"curApproveUserId":"19814","curApproveUserName":"杨阳","applyOrgId":1711,"applyOrgName":"财务管理中心","payOrgId":1711,"distributorName":null,"payeeId":null,"payee":"邹湘芸","payeeApplyOrgId":null,"payeeApplyOrgName":null,"receiptCity":null,"receiptBank":"","receiptBankAccount":"","reimburseRemark":"","year":2018,"createby":6502,"createbyName":"邹湘芸","createDate":1521107567000,"updateby":6502,"updatebyName":"邹湘芸","updateDate":1521107574000,"payOrgUnitId":null,"payOrgUnitName":null,"payOrgDepartmentId":null,"payOrgDepartmentName":null,"startDate":null,"endDate":null,"fileIds":"","itemList":null},{"id":3421,"reimburseSn":"BX2018031500048","reimburseTitle":"20180315-002","reimburseOpinion":null,"payStatus":0,"totalMoney":1.0300,"taxMoney":0.0300,"relTaxMoney":1.0300,"relTotalMoney":0.0000,"relNonTaxMoney":1.0000,"nonTaxMoney":1.0000,"delFlag":0,"areaOrgId":null,"areaOrgName":null,"paymentPropertyId":null,"paymentPropertyName":null,"paymentPropertyCode":null,"paymentPropertyRemark":null,"paymentMode":2,"commissionFlag":0,"collectionDate":1521043200000,"attachmentNumber":0,"payDate":null,"payMoney":null,"operator":null,"flowInstanceId":8500001,"approveStatus":3,"curApproveUserId":"19814","curApproveUserName":"杨阳","applyOrgId":1711,"applyOrgName":"财务管理中心","payOrgId":1711,"distributorName":null,"payeeId":null,"payee":"邹湘芸","payeeApplyOrgId":null,"payeeApplyOrgName":null,"receiptCity":null,"receiptBank":"","receiptBankAccount":"","reimburseRemark":"","year":2018,"createby":6502,"createbyName":"邹湘芸","createDate":1521107219000,"updateby":6502,"updatebyName":"邹湘芸","updateDate":1521107251000,"payOrgUnitId":null,"payOrgUnitName":null,"payOrgDepartmentId":null,"payOrgDepartmentName":null,"startDate":null,"endDate":null,"fileIds":"","itemList":null},{"id":3420,"reimburseSn":"BX2018031500046","reimburseTitle":"2222333","reimburseOpinion":null,"payStatus":0,"totalMoney":22.6600,"taxMoney":0.6600,"relTaxMoney":22.6600,"relTotalMoney":0.0000,"relNonTaxMoney":22.0000,"nonTaxMoney":22.0000,"delFlag":0,"areaOrgId":null,"areaOrgName":null,"paymentPropertyId":null,"paymentPropertyName":null,"paymentPropertyCode":null,"paymentPropertyRemark":null,"paymentMode":2,"commissionFlag":0,"collectionDate":1521043200000,"attachmentNumber":0,"payDate":null,"payMoney":null,"operator":null,"flowInstanceId":8499029,"approveStatus":3,"curApproveUserId":"19814","curApproveUserName":"杨阳","applyOrgId":1711,"applyOrgName":"财务管理中心","payOrgId":1711,"distributorName":null,"payeeId":null,"payee":"邹湘芸","payeeApplyOrgId":null,"payeeApplyOrgName":null,"receiptCity":null,"receiptBank":"","receiptBankAccount":"","reimburseRemark":"","year":2018,"createby":6502,"createbyName":"邹湘芸","createDate":1521104439000,"updateby":6502,"updatebyName":"邹湘芸","updateDate":1521104451000,"payOrgUnitId":null,"payOrgUnitName":null,"payOrgDepartmentId":null,"payOrgDepartmentName":null,"startDate":null,"endDate":null,"fileIds":"","itemList":null},{"id":3419,"reimburseSn":"BX2018031500042","reimburseTitle":"0315-001","reimburseOpinion":null,"payStatus":0,"totalMoney":1.0000,"taxMoney":0.0000,"relTaxMoney":1.0000,"relTotalMoney":0.0000,"relNonTaxMoney":1.0000,"nonTaxMoney":1.0000,"delFlag":0,"areaOrgId":0,"areaOrgName":null,"paymentPropertyId":0,"paymentPropertyName":null,"paymentPropertyCode":null,"paymentPropertyRemark":null,"paymentMode":2,"commissionFlag":0,"collectionDate":1521043200000,"attachmentNumber":0,"payDate":null,"payMoney":null,"operator":"","flowInstanceId":8498240,"approveStatus":3,"curApproveUserId":"19814","curApproveUserName":"杨阳","applyOrgId":1711,"applyOrgName":"物业总部-财务管理中心","payOrgId":1711,"distributorName":null,"payeeId":6502,"payee":"邹湘芸","payeeApplyOrgId":null,"payeeApplyOrgName":null,"receiptCity":null,"receiptBank":null,"receiptBankAccount":null,"reimburseRemark":null,"year":2018,"createby":6502,"createbyName":"邹湘芸","createDate":1521103579000,"updateby":null,"updatebyName":null,"updateDate":null,"payOrgUnitId":null,"payOrgUnitName":null,"payOrgDepartmentId":null,"payOrgDepartmentName":"","startDate":null,"endDate":null,"fileIds":"","itemList":null},{"id":3418,"reimburseSn":"BX2018031500040","reimburseTitle":"22223333","reimburseOpinion":null,"payStatus":0,"totalMoney":22.6600,"taxMoney":0.6600,"relTaxMoney":22.6600,"relTotalMoney":0.0000,"relNonTaxMoney":22.0000,"nonTaxMoney":22.0000,"delFlag":0,"areaOrgId":null,"areaOrgName":null,"paymentPropertyId":null,"paymentPropertyName":null,"paymentPropertyCode":null,"paymentPropertyRemark":null,"paymentMode":2,"commissionFlag":0,"collectionDate":1521043200000,"attachmentNumber":0,"payDate":null,"payMoney":null,"operator":null,"flowInstanceId":8498745,"approveStatus":3,"curApproveUserId":"19814","curApproveUserName":"杨阳","applyOrgId":1711,"applyOrgName":"财务管理中心","payOrgId":1711,"distributorName":null,"payeeId":null,"payee":"邹湘芸","payeeApplyOrgId":null,"payeeApplyOrgName":null,"receiptCity":null,"receiptBank":"","receiptBankAccount":"","reimburseRemark":"","year":2018,"createby":6502,"createbyName":"邹湘芸","createDate":1521103296000,"updateby":6502,"updatebyName":"邹湘芸","updateDate":1521103742000,"payOrgUnitId":null,"payOrgUnitName":null,"payOrgDepartmentId":null,"payOrgDepartmentName":null,"startDate":null,"endDate":null,"fileIds":"","itemList":null},{"id":3417,"reimburseSn":"BX2018031500037","reimburseTitle":"2222222","reimburseOpinion":null,"payStatus":0,"totalMoney":2288.6600,"taxMoney":66.6600,"relTaxMoney":2288.6600,"relTotalMoney":0.0000,"relNonTaxMoney":2222.0000,"nonTaxMoney":2222.0000,"delFlag":0,"areaOrgId":null,"areaOrgName":null,"paymentPropertyId":null,"paymentPropertyName":null,"paymentPropertyCode":null,"paymentPropertyRemark":null,"paymentMode":2,"commissionFlag":0,"collectionDate":1521043200000,"attachmentNumber":0,"payDate":null,"payMoney":null,"operator":null,"flowInstanceId":0,"approveStatus":5,"curApproveUserId":null,"curApproveUserName":null,"applyOrgId":1179,"applyOrgName":"江苏新城物业","payOrgId":1179,"distributorName":null,"payeeId":null,"payee":"邹湘芸","payeeApplyOrgId":null,"payeeApplyOrgName":null,"receiptCity":null,"receiptBank":"","receiptBankAccount":"","reimburseRemark":"","year":2018,"createby":6502,"createbyName":"邹湘芸","createDate":1521103154000,"updateby":null,"updatebyName":null,"updateDate":null,"payOrgUnitId":null,"payOrgUnitName":null,"payOrgDepartmentId":null,"payOrgDepartmentName":null,"startDate":null,"endDate":null,"fileIds":"","itemList":null},{"id":3416,"reimburseSn":"BX2018031500030","reimburseTitle":"11111","reimburseOpinion":null,"payStatus":0,"totalMoney":1111.0000,"taxMoney":0.0000,"relTaxMoney":1111.0000,"relTotalMoney":0.0000,"relNonTaxMoney":1111.0000,"nonTaxMoney":1111.0000,"delFlag":0,"areaOrgId":null,"areaOrgName":null,"paymentPropertyId":null,"paymentPropertyName":null,"paymentPropertyCode":null,"paymentPropertyRemark":null,"paymentMode":2,"commissionFlag":null,"collectionDate":1521043200000,"attachmentNumber":0,"payDate":null,"payMoney":null,"operator":null,"flowInstanceId":null,"approveStatus":5,"curApproveUserId":null,"curApproveUserName":null,"applyOrgId":1179,"applyOrgName":"江苏新城物业","payOrgId":1179,"distributorName":null,"payeeId":null,"payee":"邹湘芸","payeeApplyOrgId":null,"payeeApplyOrgName":null,"receiptCity":null,"receiptBank":"","receiptBankAccount":"","reimburseRemark":"","year":2018,"createby":6502,"createbyName":"邹湘芸","createDate":1521100879000,"updateby":null,"updatebyName":null,"updateDate":null,"payOrgUnitId":null,"payOrgUnitName":null,"payOrgDepartmentId":null,"payOrgDepartmentName":null,"startDate":null,"endDate":null,"fileIds":"","itemList":null},{"id":3414,"reimburseSn":"BX2018031500028","reimburseTitle":"33333","reimburseOpinion":null,"payStatus":0,"totalMoney":67676.0000,"taxMoney":0.0000,"relTaxMoney":67676.0000,"relTotalMoney":0.0000,"relNonTaxMoney":67676.0000,"nonTaxMoney":67676.0000,"delFlag":0,"areaOrgId":null,"areaOrgName":null,"paymentPropertyId":null,"paymentPropertyName":null,"paymentPropertyCode":null,"paymentPropertyRemark":null,"paymentMode":2,"commissionFlag":0,"collectionDate":1521043200000,"attachmentNumber":0,"payDate":null,"payMoney":null,"operator":null,"flowInstanceId":0,"approveStatus":5,"curApproveUserId":null,"curApproveUserName":null,"applyOrgId":1347,"applyOrgName":"新城测试环境","payOrgId":1347,"distributorName":null,"payeeId":null,"payee":"黄先生测试","payeeApplyOrgId":null,"payeeApplyOrgName":null,"receiptCity":null,"receiptBank":"","receiptBankAccount":"","reimburseRemark":"","year":2018,"createby":6502,"createbyName":"邹湘芸","createDate":1521100690000,"updateby":null,"updatebyName":null,"updateDate":null,"payOrgUnitId":null,"payOrgUnitName":null,"payOrgDepartmentId":null,"payOrgDepartmentName":null,"startDate":null,"endDate":null,"fileIds":"","itemList":null},{"id":3412,"reimburseSn":"BX2018031500026","reimburseTitle":"333","reimburseOpinion":null,"payStatus":0,"totalMoney":2288.6600,"taxMoney":66.6600,"relTaxMoney":2288.6600,"relTotalMoney":0.0000,"relNonTaxMoney":2222.0000,"nonTaxMoney":2222.0000,"delFlag":0,"areaOrgId":null,"areaOrgName":null,"paymentPropertyId":null,"paymentPropertyName":null,"paymentPropertyCode":null,"paymentPropertyRemark":null,"paymentMode":2,"commissionFlag":0,"collectionDate":1521043200000,"attachmentNumber":0,"payDate":null,"payMoney":null,"operator":null,"flowInstanceId":8497501,"approveStatus":3,"curApproveUserId":"6298","curApproveUserName":"谢恺","applyOrgId":1347,"applyOrgName":"新城测试环境","payOrgId":1347,"distributorName":null,"payeeId":null,"payee":"邹湘芸","payeeApplyOrgId":null,"payeeApplyOrgName":null,"receiptCity":null,"receiptBank":"","receiptBankAccount":"","reimburseRemark":"","year":2018,"createby":6502,"createbyName":"邹湘芸","createDate":1521100177000,"updateby":6502,"updatebyName":"邹湘芸","updateDate":1521103026000,"payOrgUnitId":null,"payOrgUnitName":null,"payOrgDepartmentId":null,"payOrgDepartmentName":null,"startDate":null,"endDate":null,"fileIds":"","itemList":null},{"id":3411,"reimburseSn":"BX2018031500025","reimburseTitle":"123","reimburseOpinion":null,"payStatus":0,"totalMoney":222.0000,"taxMoney":0.0000,"relTaxMoney":222.0000,"relTotalMoney":0.0000,"relNonTaxMoney":222.0000,"nonTaxMoney":222.0000,"delFlag":0,"areaOrgId":null,"areaOrgName":null,"paymentPropertyId":null,"paymentPropertyName":null,"paymentPropertyCode":null,"paymentPropertyRemark":null,"paymentMode":2,"commissionFlag":0,"collectionDate":1521043200000,"attachmentNumber":0,"payDate":null,"payMoney":null,"operator":null,"flowInstanceId":8492501,"approveStatus":3,"curApproveUserId":"6298","curApproveUserName":"谢恺","applyOrgId":1347,"applyOrgName":"新城测试环境","payOrgId":1347,"distributorName":null,"payeeId":null,"payee":"黄先生测试","payeeApplyOrgId":null,"payeeApplyOrgName":null,"receiptCity":null,"receiptBank":"","receiptBankAccount":"","reimburseRemark":"","year":2018,"createby":6502,"createbyName":"邹湘芸","createDate":1521100149000,"updateby":null,"updatebyName":null,"updateDate":null,"payOrgUnitId":null,"payOrgUnitName":null,"payOrgDepartmentId":null,"payOrgDepartmentName":null,"startDate":null,"endDate":null,"fileIds":"","itemList":null},{"id":3406,"reimburseSn":"BX2018031500011","reimburseTitle":"444","reimburseOpinion":null,"payStatus":0,"totalMoney":44.0000,"taxMoney":0.0000,"relTaxMoney":44.0000,"relTotalMoney":0.0000,"relNonTaxMoney":44.0000,"nonTaxMoney":44.0000,"delFlag":0,"areaOrgId":null,"areaOrgName":null,"paymentPropertyId":null,"paymentPropertyName":null,"paymentPropertyCode":null,"paymentPropertyRemark":null,"paymentMode":1,"commissionFlag":null,"collectionDate":1521043200000,"attachmentNumber":0,"payDate":null,"payMoney":null,"operator":null,"flowInstanceId":null,"approveStatus":5,"curApproveUserId":null,"curApproveUserName":null,"applyOrgId":1179,"applyOrgName":"江苏新城物业","payOrgId":1179,"distributorName":null,"payeeId":null,"payee":"邹湘芸","payeeApplyOrgId":null,"payeeApplyOrgName":null,"receiptCity":null,"receiptBank":"招商银行","receiptBankAccount":"6214855190669586","reimburseRemark":"","year":2018,"createby":6502,"createbyName":"邹湘芸","createDate":1521080143000,"updateby":null,"updatebyName":null,"updateDate":null,"payOrgUnitId":null,"payOrgUnitName":null,"payOrgDepartmentId":null,"payOrgDepartmentName":null,"startDate":null,"endDate":null,"fileIds":"","itemList":null},{"id":3405,"reimburseSn":"BX2018031500009","reimburseTitle":"1232","reimburseOpinion":null,"payStatus":0,"totalMoney":22.0000,"taxMoney":0.0000,"relTaxMoney":22.0000,"relTotalMoney":0.0000,"relNonTaxMoney":22.0000,"nonTaxMoney":22.0000,"delFlag":0,"areaOrgId":0,"areaOrgName":null,"paymentPropertyId":0,"paymentPropertyName":null,"paymentPropertyCode":null,"paymentPropertyRemark":null,"paymentMode":2,"commissionFlag":0,"collectionDate":1521043200000,"attachmentNumber":0,"payDate":null,"payMoney":null,"operator":null,"flowInstanceId":0,"approveStatus":5,"curApproveUserId":"0","curApproveUserName":null,"applyOrgId":1179,"applyOrgName":"江苏新城物业","payOrgId":1179,"distributorName":null,"payeeId":null,"payee":"邹湘芸","payeeApplyOrgId":null,"payeeApplyOrgName":null,"receiptCity":null,"receiptBank":"","receiptBankAccount":"","reimburseRemark":"test1111","year":2018,"createby":6502,"createbyName":"邹湘芸","createDate":1521077614000,"updateby":6502,"updatebyName":"邹湘芸","updateDate":1521079953000,"payOrgUnitId":null,"payOrgUnitName":null,"payOrgDepartmentId":null,"payOrgDepartmentName":null,"startDate":null,"endDate":null,"fileIds":"","itemList":null}]}}